﻿Employee Number,Name of Employee,"Gender (Male -1, Female -2)",Basic Salary,NSSF,NHIF,Account No.,Bank Code,Branch Code,ID NO,PIN of Employee,Email Address,Date of Engagement (YYYY-MM-DD),Date of Exit (YYYY-MM-DD)
1,ANNE NJATHA,,50000,916391817,2114217,0640168991179,68,064,23786812,A003184826L,,,
2,HELLEN MUSIMBI,,44000,463908821,3875187,0630198826461,68,063,26316682,A008755937M,,,
3,EVANS MUBEA,,200000,538482923,3277767,0010101201909,68,001,13543169,A003202148D,,,
4,JENNIFER KAMAU,,33000,943988810,2284619,0310191837339,68,031,24405030,A006766112T,,,
5,JOSEPH NJOROGE,,28000,083351620,6717185,0640161489745,68,064,6067559,A004512393W,,,
6,JOSEPH RANGE,,19000,202989462X,8800139,0640174403666,68,064,36548609,A014423472Q,,,
7,JOAN BULUMA,,35000,750994819,1885773,0630162010446,68,063,22229100,A003224610X,,,
8,ELIZABETH MUBEA,,215000,2009043414,5875880,1340164196031,68,134,21970655,A006207241M,,,
9,MIRIAM WAITHAKA,,25000,2020010705,7430980,0240162367663,68,024,30742797,A011415634M,,,
10,PATRICK WASIKE,,40000,155845918,2102102,052000006242,70,052,24244445,A003839839Q,,,
11,KATE OWISO,,28000,2014745258,5726538,0350179670734,68,035,30363703,A010567951E,,,
12,MARY MUTUA,,23000,2016779676,4061062,1340184110910,68,134,26953536,A005476202N,,,
13,RUTH NGOGOYO,,18000,2033111895,15439705,0640180534047,68,064,34492430,A016103724A,,,
14,PAMELLA WASIRA,,85000,2001645504,4920949,1450184173507,68,145,13877789,A003069466C,,,
15,CAROLINE KABIRA,,30000,723828814,2574603,0020100055658,68,002,21765673,A005199915V,,,
16,DORA BUCA,,31000,2024197774,9471797,0640185175105,68,064,37406496,A012134876Q,,,
17,ESTHER OPONDO,,16000,2035449673,16444862,0640181208080,68,064,39504201,A016881176C,,,
18,DANCAN SHIRAKU,,34000,2017107356,7216887,0290196343343,68,029,25906677,A011003753D,,,
19,BRIAN SESE,,30000,21218993X,14993209,0650178978635,68,065,28839144,A007399275O,,,
20,SILVIA KIDAMBALE,,25000,2019403791,8662911,7770169650026,68,777,33289374,A010125272H,,,
21,JUDITH ANDERA,,15000,2037843358,14467132,0640182313043,68,064,22966012,A010438836X,,,
22,DOMINIC ONCHIEKU,,38000,2004781958,5100419,0470182478319,68,047,25293622,A006970589O,,,
23,HENRY WAIRIMU,,25500,752702912,2705653,0880193212188,68,088,22002020,A004575700R,,,
24,JACOB MUNDIA,,26000,2028995619,2921023,0710180529483,68,071,20392768,A004629676R,,,
25,ANNE WACHIRA,,30000,204364583X,4268296,0120100307447,68,012,22344534,A004344020B,,,
26,MAGGIE MWAKILENGE,,30000,657994812,1469875,0460192275262,68,046,13710973,A003048608Z,,,
27,CHRISTINE ESHIPWAKA,,15000,2044900202,21128564,0640183513385,68,064,35564974,A019002234Z,,,
28,SIMON KARANJA,,30000,511542623,843240,0120190675846,68,012,3229018,A002298640W,,,
29,MWENDWA KAUNA,,20000,333317912,3183786,0320183099874,68,032,8634354,A002813112E,,,
30,LOREEN AREMO,,15000,2045103205,21224075,0650184303780,68,065,37103922,A012349002I,,,
31,REACHEL MWANGI,,15000,2042512982,20634726,0640183998030,68,064,28730365,A009728515D,,,
32,CICILIA THIGA,,13000,2045011865,15777462,7770183957884,68,777,38206941,A019364353V,,,
33,FAITH NDEREBA,,25000,2045894745,21418144,1180162888536,68,118,32788231,A014721245K,,,
34,JOHN KAMAU,,60000,2046188969,20621319,1276731884,01,127,37549237,A014281658P,,,
35,PHILIP MUCHIRI,,18000,2046762132,7658433,0620181222091,68,062,1334548,A010994540Y,,,
36,SIMON MWARIRI,,25000,139915931,1314248,0650193845445,68,065,14405055,A002819261H,,,
37,CAROLINE OUMA,,25000,2007825063,5741265,0640184496654,68,064,31725745,A011673727U,,,
38,JULIET UKIRU,,25000,2031136895,14682364,0910171011152,68,091,33855215,A012309756B,,,
39,JOHN WANJIKU,,16000,2046189287,21458370,0640184201437,68,064,35608147,A019457981Z,,,
40,FREDRICK BOROBE,,22000,2046537021,22098449,0520177144852,68,052,36910709,A011986676T,,,
41,DAVID KARIUKI,,27000,337661928,11348532,0690180082242,68,069,11348532,A011700296T,,,
42,LISA OCHIENG,,28000,2012350711,7902073,0320166359955,68,032,30656019,A009771401L,,,
43,DERRICK WANYAMA,,37000,2030008237,15475800,7770164129811,68,777,33033244,A008693268K,,,
44,GEOFREY MAHAGA,,35000,2025590045,9488378,0320162395630,01,032,31502337,A008583419V,,,
45,TABITHA MUITHI,,28000,2022589784,7873736,0720175475695,68,072,35868696,A011632149Z,,,
46,ISABELLAH ONSARE,,30000,200122801X,4584208,01109156842200,11,011,27281744,A004509355F,,,
47,MILRED KADENGE,,28000,2018289923,14927007,1800178631459,68,180,33908133,A011042386K,,,
48,VIVIAN OTHOO,,31000,2015138371,6918848,1170183183250,68,117,30485190,A008931993L,,,
49,SHARON CHEROTICH,,28000,2050779403,23107167,0640185012974,68,064,38089619,A014719252F,,,
50,JOYCE KAGWE,,18000,2050724835,23201528,01100275579001,11,011,5358653,A020197384C,,,
51,AGNES NDIRANGU,,18000,2050726348,8986138,1150177338901,68,115,14560891,A008714541W,,,
52,PETER MUNDIA,,25000,913672629,631589,0260190291596,68,026,4307407,A001974970K,,,
53,YVONNE IGOGO,,14594,205099085X,23271641,1740184666270,68,174,39321932,A017423300A,,,
54,MARION KENANI,,14594,2050991015,22406638,1312254904,01,131,41957764,A019383854B,,,
55,TERRY NJERI,,23000,59681982X,4382830,051000019598,70,051,31745980,A014068600I,,,
56,SERAH MWANGI,,25000,2034184018,7452185,1340169806104,68,777,34055050,A008152805E,,,
57,JACQUELINE WAWERU,,38000,2051141776,23614552,0470193268040,68,134,14626081,A010537295G,,,
58,HANAH WACHIRA,,26000,2051984169,8965956,0630183446767,68,047,22589994,A011474720J,,,
59,PETER KARANJA,,35000,2045767134,3543824,1298694647,01,131,35457764,A004443576Y,,,
60,GEORGE KUNGU,,35000,2043353521,4824109,0640192317656,68,063,36429933,A002985958U,,,